…
tidy_GDP_data_4 <-tidy_GDP_data%>% 
  filter(Country %in% country_list) %>% 
  filter(IndicatorName %in% GDP_list)

#Calculate the GDP manually from components and then calculate the percetnage difference between the calucalted GDP and GDP shown in the orginial source

tidy_GDP_data_5 <- tidy_GDP_data_4 %>% 
  pivot_wider(names_from = `IndicatorName`,values_from=value) %>% 
  mutate(`Gross GDP Calculated` = `Government expenditure`+`Gross capital formation`+`Household expenditure`+`Exports`-`Imports`) %>% 
  mutate(percent_diff = 
           (`Gross GDP Calculated`- `Gross Domestic Product (GDP)`)/`Gross Domestic Product (GDP)`)       

tidy_GDP_data_5[c(2,3,9,10,11)]

## # A tibble: 864 × 5
##    Country  `2018` Exports Imports `Gross Domestic Product (GDP)`
##    <chr>     <dbl>   <dbl>   <dbl>                          <dbl>
##  1 Germany 1.88e12      NA      NA                             NA
##  2 Germany 1.88e12      NA      NA                             NA
##  3 Germany 1.88e12      NA      NA                             NA
##  4 Germany 1.88e12      NA      NA                             NA
##  5 Germany 1.88e12      NA      NA                             NA
##  6 Germany 1.88e12      NA      NA                             NA
##  7 Germany 1.88e12      NA      NA                             NA
##  8 Germany 1.88e12      NA      NA                             NA
##  9 Germany 1.88e12      NA      NA                             NA
## 10 Germany 1.88e12      NA      NA                             NA
## # … with 854 more rows
…
