…
  # assume independence, i.e, there is no difference
  hypothesize(null = "independence") %>%
  
  # generate 1000 reps, of type "permute"
  generate(reps = 1000, type = "permute") %>%
  
  # calculate statistic of difference, namely "diff in means"
  calculate(stat = "diff in means", order = c("yes", "no"))

null_dist

## Response: weight (numeric)
## Explanatory: physical_3plus (factor)
## Null Hypothesis: independence
## # A tibble: 1,000 × 2
##    replicate    stat
##        <int>   <dbl>
##  1         1  0.425 
##  2         2  0.543 
##  3         3  0.714 
##  4         4  0.176 
##  5         5  0.578 
##  6         6 -0.212 
##  7         7  0.0470
##  8         8  0.350 
##  9         9  0.286 
## 10        10  0.250 
## # … with 990 more rows
…
